Workflow
…
# Save them
ggsave("plots/supplementary/RE_scatter.png", plot = p_scatter_RE, width = 8, height = 6, dpi = 600, bg = "white")

by_sensor_data %>%
  filter(!is.finite(relative_error))

# A tibble: 1,270 × 26
   timestamp_rounded_5min source chamber_RH chamber_temp PM1_SMPS PM1_SMPS_SPS30
   <dttm>                 <fct>       <dbl>        <dbl>    <dbl>          <dbl>
 1 2025-05-21 09:25:00    "Cand…         40           20   0.814          0.466 
 2 2025-05-21 09:30:00    "Cand…         40           20   0.507          0.233 
 3 2025-05-23 06:55:00    "Cook…         40           20   0.123          0.0307
 4 2025-05-23 07:00:00    "Cook…         40           20   0.0897         0.0120
 5 2025-05-23 07:05:00    "Cook…         40           20   2.62           1.56  
 6 2025-05-28 09:35:00    "Cook…         70           20   0.462          0.352 
 7 2025-05-28 09:40:00    "Cook…         70           20  29.2            9.23  
 8 2025-05-28 11:50:00    "Cook…         70           20   1.44           0.727 
 9 2025-05-28 13:45:00    "Cook…         70           20   0.940          0.252 
10 2025-05-28 13:50:00    "Cook…         70           20   0.657          0.111 
# ℹ 1,260 more rows
# ℹ 20 more variables: PN25_APS_valid <dbl>, PM1_APS_valid <dbl>,
#   PM25_APS_valid <dbl>, PM25_dusttrak <dbl>, PN1_SMPS_SPS30 <dbl>,
#   timestamp_rounded_1min <dttm>, sensor <dbl>, SPS30_PM1 <dbl>,
#   SPS30_PM2.5 <dbl>, SHTC3Ext_T <dbl>, SHTC3Ext_RH <dbl>, SHTC3_T <dbl>,
#   SHTC3_RH <dbl>, PM2.5_ref <dbl>, reference <fct>, PM2.5_pred <dbl>,
#   holdout_sensor <dbl>, method <chr>, error <dbl>, relative_error <dbl>
…
